MyLabJournal - Deep Learning
…
The “customerID” column is a unique identifier for each observation that isn’t needed for modeling.

The data has 11 NA values all in the “TotalCharges” column. Because it’s such a small percentage of the total population (99.8% complete cases), we can drop these observations (the tidyr package provides a function for that. Type tidyr:: to get a list of the function.)

have the target in the first column

churn_data_tbl <- churn_data_raw %>%
                  select(-customerID) %>%
                  tidyr::drop_na(TotalCharges) %>% 
                  relocate(Churn)

churn_data_tbl

# A tibble: 7,032 × 20
   Churn gender SeniorCitizen Partner Dependents tenure PhoneService
   <chr> <chr>          <dbl> <chr>   <chr>       <dbl> <chr>       
 1 No    Female             0 Yes     No              1 No          
 2 No    Male               0 No      No             34 Yes         
 3 Yes   Male               0 No      No              2 Yes         
 4 No    Male               0 No      No             45 No          
 5 Yes   Female             0 No      No              2 Yes         
 6 Yes   Female             0 No      No              8 Yes         
 7 No    Male               0 No      Yes            22 Yes         
 8 No    Female             0 No      No             10 No          
 9 Yes   Female             0 Yes     No             28 Yes         
10 No    Male               0 No      Yes            62 Yes         
# ℹ 7,022 more rows
# ℹ 13 more variables: MultipleLines <chr>, InternetService <chr>,
#   OnlineSecurity <chr>, OnlineBackup <chr>, DeviceProtection <chr>,
#   TechSupport <chr>, StreamingTV <chr>, StreamingMovies <chr>,
#   Contract <chr>, PaperlessBilling <chr>, PaymentMethod <chr>,
#   MonthlyCharges <dbl>, TotalCharges <dbl>
…
# Predictors
x_train_tbl <- bake(rec_obj, new_data = train_tbl)
x_test_tbl  <- bake(rec_obj, new_data = test_tbl)
#as.matrix(x_train_tbl)
x_train_tbl

# A tibble: 5,977 × 50
   SeniorCitizen MonthlyCharges TotalCharges gender_Female gender_Male
           <dbl>          <dbl>        <dbl>         <dbl>       <dbl>
 1        -0.442          0.143       -0.555        -0.992       0.992
 2        -0.442          0.639        0.923         1.01       -1.01 
 3        -0.442          0.216       -1.21         -0.992       0.992
 4        -0.442         -1.34        -0.194         1.01       -1.01 
 5        -0.442         -1.48        -1.94         -0.992       0.992
 6        -0.442          0.817        0.384         1.01       -1.01 
 7        -0.442          0.189        0.784        -0.992       0.992
 8        -0.442          0.846        1.04          1.01       -1.01 
 9        -0.442         -0.293       -0.218         1.01       -1.01 
10        -0.442         -1.50        -0.574        -0.992       0.992
# ℹ 5,967 more rows
# ℹ 45 more variables: Partner_No <dbl>, Partner_Yes <dbl>,
#   Dependents_No <dbl>, Dependents_Yes <dbl>, tenure_bin1 <dbl>,
#   tenure_bin2 <dbl>, tenure_bin3 <dbl>, tenure_bin4 <dbl>, tenure_bin5 <dbl>,
#   tenure_bin6 <dbl>, PhoneService_No <dbl>, PhoneService_Yes <dbl>,
#   MultipleLines_No <dbl>, MultipleLines_No.phone.service <dbl>,
#   MultipleLines_Yes <dbl>, InternetService_DSL <dbl>, …
…
